fadg0
faks0
fcft0
fcmh0
fcmr0
fcrh0
fdac1
fdms0
fdrd1
fedw0
felc0
fgjd0
fjas0
fjem0
fjre0
fjwb0
fkms0
fpkt0
fram1
mabw0
mbdg0
mbjk0
mccs0
mcem0
mdab0
mdbb0
mdld0
mgwt0
mjar0
mjsw0
mmdb1
mmdm2
mpdf0
mpgl0
mrcz0
mreb0
mrgg0
mrjo0
msjs1
mstk0
mtas1
mtmr0
mwbt0
