DATA/mtas1/audio/sa1.wav
DATA/mtas1/audio/sa2.wav
DATA/mtas1/audio/si1473.wav
DATA/mtas1/audio/si2098.wav
DATA/mtas1/audio/si838.wav
DATA/mtas1/audio/sx118.wav
DATA/mtas1/audio/sx208.wav
DATA/mtas1/audio/sx28.wav
DATA/mtas1/audio/sx298.wav
DATA/mtas1/audio/sx388.wav
