DATA/mstk0/audio/sa1.wav
DATA/mstk0/audio/sa2.wav
DATA/mstk0/audio/si1024.wav
DATA/mstk0/audio/si2222.wav
DATA/mstk0/audio/si2284.wav
DATA/mstk0/audio/sx124.wav
DATA/mstk0/audio/sx214.wav
DATA/mstk0/audio/sx304.wav
DATA/mstk0/audio/sx34.wav
DATA/mstk0/audio/sx394.wav
